ETC1010 - 5510: Introduction to Data Analysis
…
<br><br>
.left-code[
The case notifications table From [WHO](http://www.who.int/tb/country/data/download/en/).

Data is .green[tidied] here, with only counts for Australia.

.green[Variables are displayed in the columns and cases in the rows]
]

.right-plot[

```r
tb_au
## # A tibble: 192 × 6
##    country   iso3   year count gender age  
##    <chr>     <chr> <dbl> <dbl> <chr>  <chr>
##  1 Australia AUS    1997     8 m      15-24
##  2 Australia AUS    1998    11 m      15-24
##  3 Australia AUS    1999    13 m      15-24
##  4 Australia AUS    2000    16 m      15-24
##  5 Australia AUS    2001    23 m      15-24
##  6 Australia AUS    2002    15 m      15-24
##  7 Australia AUS    2003    14 m      15-24
##  8 Australia AUS    2004    18 m      15-24
##  9 Australia AUS    2005    32 m      15-24
## 10 Australia AUS    2006    33 m      15-24
## # … with 182 more rows
```
…
[Melbourne pedestrian sensor portal](http://www.pedestrian.melbourne.vic.gov.au/):

---
# Getting pedestrian count data with rwalkr

```r
library(rwalkr)
walk_all <- melb_walk_fast(year = 2020)

walk <- walk_all %>% filter(Sensor == "Melbourne Central")
walk
```

```
## # A tibble: 306,780 × 6
##     ...1 Sensor                       Date_Time           Date        Time Count
##    <dbl> <chr>                        <dttm>              <date>     <dbl> <dbl>
##  1     1 231 Bourke St                2020-01-01 00:00:00 2020-01-01     0    NA
##  2     2 Alfred Place                 2020-01-01 00:00:00 2020-01-01     0   336
##  3     3 Birrarung Marr               2020-01-01 00:00:00 2020-01-01     0  2944
##  4     4 Bourke St - Spencer St (Nor… 2020-01-01 00:00:00 2020-01-01     0  1323
##  5     5 Bourke St Bridge             2020-01-01 00:00:00 2020-01-01     0  2440
##  6     6 Bourke St-Russell St (West)  2020-01-01 00:00:00 2020-01-01     0  2070
##  7     7 Bourke Street Mall (North)   2020-01-01 00:00:00 2020-01-01     0  1012
##  8     8 Bourke Street Mall (South)   2020-01-01 00:00:00 2020-01-01     0   725
##  9     9 Chinatown-Lt Bourke St (Sou… 2020-01-01 00:00:00 2020-01-01     0  1014
## 10    10 Chinatown-Swanston St (Nort… 2020-01-01 00:00:00 2020-01-01     0   657
## # … with 306,770 more rows
```
…
---
# What format is walk in?

```r
walk
## # A tibble: 306,780 × 6
##     ...1 Sensor                       Date_Time           Date        Time Count
##    <dbl> <chr>                        <dttm>              <date>     <dbl> <dbl>
##  1     1 231 Bourke St                2020-01-01 00:00:00 2020-01-01     0    NA
##  2     2 Alfred Place                 2020-01-01 00:00:00 2020-01-01     0   336
##  3     3 Birrarung Marr               2020-01-01 00:00:00 2020-01-01     0  2944
##  4     4 Bourke St - Spencer St (Nor… 2020-01-01 00:00:00 2020-01-01     0  1323
##  5     5 Bourke St Bridge             2020-01-01 00:00:00 2020-01-01     0  2440
##  6     6 Bourke St-Russell St (West)  2020-01-01 00:00:00 2020-01-01     0  2070
##  7     7 Bourke Street Mall (North)   2020-01-01 00:00:00 2020-01-01     0  1012
##  8     8 Bourke Street Mall (South)   2020-01-01 00:00:00 2020-01-01     0   725
##  9     9 Chinatown-Lt Bourke St (Sou… 2020-01-01 00:00:00 2020-01-01     0  1014
## 10    10 Chinatown-Swanston St (Nort… 2020-01-01 00:00:00 2020-01-01     0   657
## # … with 306,770 more rows
```
…
---
# What might be wrong with these interpretations?
<br><br>
- There might be a .green[different number of days of the week over the year].
- This means that .green[simply summing the counts might lead to a misinterpretation of pedestrian patterns]. 
- Similarly, .green[months have different numbers of days].

---
# What are the number of pedestrians per day?

```r
walk_tidy
## # A tibble: 5,113 × 8
##     ...1 Sensor        Date_Time           Date        Time Count month wday 
##    <dbl> <chr>         <dttm>              <date>     <dbl> <dbl> <ord> <ord>
##  1    50 State Library 2020-01-01 00:00:00 2020-01-01     0  1578 Jan   Wed  
##  2   110 State Library 2020-01-01 01:00:00 2020-01-01     1  1856 Jan   Wed  
##  3   170 State Library 2020-01-01 02:00:00 2020-01-01     2   888 Jan   Wed  
##  4   230 State Library 2020-01-01 03:00:00 2020-01-01     3   352 Jan   Wed  
##  5   290 State Library 2020-01-01 04:00:00 2020-01-01     4   182 Jan   Wed  
##  6   350 State Library 2020-01-01 05:00:00 2020-01-01     5    78 Jan   Wed  
##  7   410 State Library 2020-01-01 06:00:00 2020-01-01     6    59 Jan   Wed  
##  8   470 State Library 2020-01-01 07:00:00 2020-01-01     7    58 Jan   Wed  
##  9   530 State Library 2020-01-01 08:00:00 2020-01-01     8   108 Jan   Wed  
## 10   590 State Library 2020-01-01 09:00:00 2020-01-01     9   188 Jan   Wed  
## # … with 5,103 more rows
```

---
# What are the number of pedestrians per day?

```r
walk_day <- walk_tidy %>% 
  group_by(Date) %>%
  summarise(day_count = sum(Count, na.rm = TRUE))

walk_day
## # A tibble: 213 × 2
##    Date       day_count
##    <date>         <dbl>
##  1 2020-01-01     17312
##  2 2020-01-02     19032
##  3 2020-01-03     16247
##  4 2020-01-04     16568
##  5 2020-01-05     13998
##  6 2020-01-06     16028
##  7 2020-01-07     18096
##  8 2020-01-08     18532
##  9 2020-01-09     17098
## 10 2020-01-10     21696
## # … with 203 more rows
```
…
