ETC1010 - 5510: Introduction to Data Analysis
…
.large[
`augment<MODEL>`

or

`augment(<MODEL>, <DATA>)`
]

---
# augment

```r
augment(m_ht_wt)
## # A tibble: 3,135 × 9
##    .rownames Height_in Width_in .fitted  .resid     .hat .sigma      .cooksd .std.resid
##    <chr>         <dbl>    <dbl>   <dbl>   <dbl>    <dbl>  <dbl>        <dbl>      <dbl>
##  1 1                37     29.5   26.7  10.3    0.000399   8.30 0.000310         1.25  
##  2 2                18     14     14.6   3.45   0.000396   8.31 0.0000342        0.415 
##  3 3                13     16     16.1  -3.11   0.000361   8.31 0.0000254       -0.375 
##  4 4                14     18     17.7  -3.68   0.000337   8.31 0.0000330       -0.443 
##  5 5                14     18     17.7  -3.68   0.000337   8.31 0.0000330       -0.443 
##  6 6                 7     10     11.4  -4.43   0.000498   8.31 0.0000709       -0.534 
##  7 7                 6     13     13.8  -7.77   0.000418   8.30 0.000183        -0.936 
##  8 8                 6     13     13.8  -7.77   0.000418   8.30 0.000183        -0.936 
##  9 9                15     15     15.3  -0.333  0.000377   8.31 0.000000304     -0.0401
## 10 10                9      7      9.09 -0.0870 0.000601   8.31 0.0000000330    -0.0105
## # … with 3,125 more rows
```
…
`$$\widehat{lifeExp} = 67.9 +  0.2277~year$$`

---
#nest() country level data (one row = one country)

```r
by_country <- gap %>%
select(country,
       year1950,
       lifeExp,
       continent) %>% 
group_by(country, continent) %>%
nest()
by_country
## # A tibble: 142 × 3
## # Groups:   country, continent [142]
##    country     continent data             
##    <fct>       <fct>     <list>           
##  1 Afghanistan Asia      <tibble [12 × 2]>
##  2 Albania     Europe    <tibble [12 × 2]>
##  3 Algeria     Africa    <tibble [12 × 2]>
##  4 Angola      Africa    <tibble [12 × 2]>
##  5 Argentina   Americas  <tibble [12 × 2]>
##  6 Australia   Oceania   <tibble [12 × 2]>
##  7 Austria     Europe    <tibble [12 × 2]>
##  8 Bahrain     Asia      <tibble [12 × 2]>
##  9 Bangladesh  Asia      <tibble [12 × 2]>
## 10 Belgium     Europe    <tibble [12 × 2]>
## # … with 132 more rows
```

---
# Using map function 

```r
 country_model <- by_country %>% 
  mutate(model = map(.x = data,
                     .f = function(x){
                           lm(lifeExp ~ year1950, 
                              data = x) 
                     }))

country_model
## # A tibble: 142 × 4
## # Groups:   country, continent [142]
##    country     continent data              model 
##    <fct>       <fct>     <list>            <list>
##  1 Afghanistan Asia      <tibble [12 × 2]> <lm>  
##  2 Albania     Europe    <tibble [12 × 2]> <lm>  
##  3 Algeria     Africa    <tibble [12 × 2]> <lm>  
##  4 Angola      Africa    <tibble [12 × 2]> <lm>  
##  5 Argentina   Americas  <tibble [12 × 2]> <lm>  
##  6 Australia   Oceania   <tibble [12 × 2]> <lm>  
##  7 Austria     Europe    <tibble [12 × 2]> <lm>  
##  8 Bahrain     Asia      <tibble [12 × 2]> <lm>  
##  9 Bangladesh  Asia      <tibble [12 × 2]> <lm>  
## 10 Belgium     Europe    <tibble [12 × 2]> <lm>  
## # … with 132 more rows
```
…
