ETC1010 - 5510: Introduction to Data Analysis
…
- Similar to `miss_var_summary`, `miss_case_summary` returns a summary dataframe, .green[where each case  represents a dataset row number.]

- .purple[n_miss] --> number a variables that have a missing case for a given row
- .purple[pct_miss] --> percentage of missing accross all the variables

---
# Missing data summaries: Cases example
<br><br>

.left-code[

```r
miss_case_summary(dat_sf_clean)
## # A tibble: 405 × 3
##     case n_miss pct_miss
##    <int>  <int>    <dbl>
##  1    89      4     66.7
##  2   182      4     66.7
##  3   188      4     66.7
##  4   271      4     66.7
##  5     6      3     50  
##  6     7      3     50  
##  7    10      3     50  
##  8    29      3     50  
##  9    37      3     50  
## 10    39      3     50  
## # … with 395 more rows
```
…
.content-box-soft[
- Each missingness summary function can be calculated by group, using `group_by` from `dplyr`.

- For example, we can look at the missingness by Month in the airquality dataset.
]

---
# Using summaries with `group_by`

```r
dat_sf_clean %>%
  group_by(month) %>%
  miss_var_summary()
## # A tibble: 60 × 4
## # Groups:   month [12]
##    month variable       n_miss pct_miss
##    <dbl> <chr>           <int>    <dbl>
##  1     1 temp_min            7    11.5 
##  2     1 temp_max            7    11.5 
##  3     1 temp_avg            7    11.5 
##  4     1 wind_speed_max      4     6.56
##  5     1 date                0     0   
##  6     2 temp_min            5    12.8 
##  7     2 temp_max            5    12.8 
##  8     2 temp_avg            5    12.8 
##  9     2 wind_speed_max      4    10.3 
## 10     2 date                0     0   
## # … with 50 more rows
```
…
<img src="Workshop1-Week5_files/figure-html/unnamed-chunk-12-1.png" width="60%" style="display: block; margin: auto;" />

---
# Example data: oceanbuoys

```r
oceanbuoys
## # A tibble: 736 × 8
##     year latitude longitude sea_temp_c air_temp_c humidity wind_ew wind_ns
##    <dbl>    <dbl>     <dbl>      <dbl>      <dbl>    <dbl>   <dbl>   <dbl>
##  1  1997        0      -110       27.6       27.1     79.6   -6.40    5.40
##  2  1997        0      -110       27.5       27.0     75.8   -5.30    5.30
##  3  1997        0      -110       27.6       27       76.5   -5.10    4.5 
##  4  1997        0      -110       27.6       26.9     76.2   -4.90    2.5 
##  5  1997        0      -110       27.6       26.8     76.4   -3.5     4.10
##  6  1997        0      -110       27.8       26.9     76.7   -4.40    1.60
##  7  1997        0      -110       28.0       27.0     76.5   -2       3.5 
##  8  1997        0      -110       28.0       27.1     78.3   -3.70    4.5 
##  9  1997        0      -110       28.0       27.2     78.6   -4.20    5   
## 10  1997        0      -110       28.0       27.2     76.9   -3.60    3.5 
## # … with 726 more rows
```
…
.content-box-neutral[
- (Usually bad) Simple parametric: use the mean or median of the complete cases for each variable
- (Better) More complex: use models to predict missing values
- (Best) Multiple imputation: Use a statistical distribution, e.g. normal model and simulate a value (or set of values, hot deck imputation) for the missings.
]
---
# Setup for missings

```r
tao_shadow <- bind_shadow(oceanbuoys)

tao_shadow
## # A tibble: 736 × 16
##     year latitude longitude sea_temp_c air_temp_c humidity wind_ew wind_ns
##    <dbl>    <dbl>     <dbl>      <dbl>      <dbl>    <dbl>   <dbl>   <dbl>
##  1  1997        0      -110       27.6       27.1     79.6   -6.40    5.40
##  2  1997        0      -110       27.5       27.0     75.8   -5.30    5.30
##  3  1997        0      -110       27.6       27       76.5   -5.10    4.5 
##  4  1997        0      -110       27.6       26.9     76.2   -4.90    2.5 
##  5  1997        0      -110       27.6       26.8     76.4   -3.5     4.10
##  6  1997        0      -110       27.8       26.9     76.7   -4.40    1.60
##  7  1997        0      -110       28.0       27.0     76.5   -2       3.5 
##  8  1997        0      -110       28.0       27.1     78.3   -3.70    4.5 
##  9  1997        0      -110       28.0       27.2     78.6   -4.20    5   
## 10  1997        0      -110       28.0       27.2     76.9   -3.60    3.5 
## # … with 726 more rows, and 8 more variables: year_NA <fct>, latitude_NA <fct>,
## #   longitude_NA <fct>, sea_temp_c_NA <fct>, air_temp_c_NA <fct>,
## #   humidity_NA <fct>, wind_ew_NA <fct>, wind_ns_NA <fct>
```

---
# Imputing the Mean (ignoring year).
<br><br>

```r
tao_imp_mean <- tao_shadow %>%
  mutate(sea_temp_c = impute_mean(sea_temp_c),
         air_temp_c = impute_mean(air_temp_c))

tao_shadow
## # A tibble: 736 × 16
##     year latitude longitude sea_temp_c air_temp_c humidity wind_ew wind_ns
##    <dbl>    <dbl>     <dbl>      <dbl>      <dbl>    <dbl>   <dbl>   <dbl>
##  1  1997        0      -110       27.6       27.1     79.6   -6.40    5.40
##  2  1997        0      -110       27.5       27.0     75.8   -5.30    5.30
##  3  1997        0      -110       27.6       27       76.5   -5.10    4.5 
##  4  1997        0      -110       27.6       26.9     76.2   -4.90    2.5 
##  5  1997        0      -110       27.6       26.8     76.4   -3.5     4.10
##  6  1997        0      -110       27.8       26.9     76.7   -4.40    1.60
##  7  1997        0      -110       28.0       27.0     76.5   -2       3.5 
##  8  1997        0      -110       28.0       27.1     78.3   -3.70    4.5 
##  9  1997        0      -110       28.0       27.2     78.6   -4.20    5   
## 10  1997        0      -110       28.0       27.2     76.9   -3.60    3.5 
## # … with 726 more rows, and 8 more variables: year_NA <fct>, latitude_NA <fct>,
## #   longitude_NA <fct>, sea_temp_c_NA <fct>, air_temp_c_NA <fct>,
## #   humidity_NA <fct>, wind_ew_NA <fct>, wind_ns_NA <fct>
```
…
---
# Compare left and right channels

<img src="Workshop1-Week5_files/figure-html/gg-compare-left-and-right-1.png" width="80%" style="display: block; margin: auto;" />

???

Oh, same sound is on both channels! A tad drab.

---
# Compute statistics

```
## # A tibble: 200,004 × 4
##        t word  channel value
##    <int> <chr> <chr>   <int>
##  1     1 data  left       28
##  2     1 data  right      29
##  3     2 data  left       27
##  4     2 data  right      28
##  5     3 data  left       26
##  6     3 data  right      24
##  7     4 data  left       24
##  8     4 data  right      27
##  9     5 data  left       22
## 10     5 data  right      18
## # … with 199,994 more rows
```
…
---
# Music library

```
## # A tibble: 62 × 8
##    ...1           artist type       lvar  lave  lmax lfener lfreq
##    <chr>          <chr>  <chr>     <dbl> <dbl> <dbl>  <dbl> <dbl>
##  1 Dancing Queen  Abba   Rock  17600756. -90.0 29921   106.  59.6
##  2 Knowing Me     Abba   Rock   9543021. -75.8 27626   103.  58.5
##  3 Take a Chance  Abba   Rock   9049482. -98.1 26372   102. 125. 
##  4 Mamma Mia      Abba   Rock   7557437. -90.5 28898   102.  48.8
##  5 Lay All You    Abba   Rock   6282286. -89.0 27940   100.  74.0
##  6 Super Trouper  Abba   Rock   4665867. -69.0 25531   100.  81.4
##  7 I Have A Dream Abba   Rock   3369670. -71.7 14699   105. 305. 
##  8 The Winner     Abba   Rock   1135862  -67.8  8928   104. 278. 
##  9 Money          Abba   Rock   6146943. -76.3 22962   102. 165. 
## 10 SOS            Abba   Rock   3482882. -74.1 15517   104. 147. 
## # … with 52 more rows
```
…
