ETC1010 - 5510: Introduction to Data Analysis
…
---

# Example: US graduate programs

```r
library(tidyverse)
grad <- read_csv("data/graduate-programs.csv")
grad
## # A tibble: 412 × 16
##    subject   Inst  AvNumPubs AvNumCits PctFacGrants PctCompletion MedianTimetoDeg…
##    <chr>     <chr>     <dbl>     <dbl>        <dbl>         <dbl>            <dbl>
##  1 economics ARIZ…      0.9       1.57         31.3          31.7             5.6 
##  2 economics AUBU…      0.79      0.64         77.6          44.4             3.84
##  3 economics BOST…      0.51      1.03         43.5          46.8             5   
##  4 economics BOST…      0.49      2.66         36.9          34.2             5.5 
##  5 economics BRAN…      0.3       3.03         36.8          48.7             5.29
##  6 economics BROW…      0.84      2.31         27.1          54.6             6   
##  7 economics CALI…      0.99      2.31         56.4          83.3             4   
##  8 economics CARN…      0.43      1.67         35.2          45.6             5.05
##  9 economics CITY…      0.35      1.06         38.1          27.9             5.2 
## 10 economics CLAR…      0.47      0.7          24.7          37.7             5.17
## # … with 402 more rows, and 9 more variables: PctMinorityFac <dbl>,
## #   PctFemaleFac <dbl>, PctFemaleStud <dbl>, PctIntlStud <dbl>,
## #   AvNumPhDs <dbl>, AvGREs <dbl>, TotFac <dbl>, PctAsstProf <dbl>,
## #   NumStud <dbl>
```
…
<br>
.pull-right[
<img src="Workshop1-Week2_files/figure-html/gra-dplot-out-1.png" height="100%" style="display: block; margin: auto;" />
]

---
# Terminology of data: Variable
<br><br>
.content-box[
- A quantity, quality, or property that you can measure. 
- For the grad programs, these would be all the .green[column headers].
]

```
## # A tibble: 412 × 16
##    subject   Inst  AvNumPubs AvNumCits PctFacGrants PctCompletion MedianTimetoDeg…
##    <chr>     <chr>     <dbl>     <dbl>        <dbl>         <dbl>            <dbl>
##  1 economics ARIZ…      0.9       1.57         31.3          31.7             5.6 
##  2 economics AUBU…      0.79      0.64         77.6          44.4             3.84
##  3 economics BOST…      0.51      1.03         43.5          46.8             5   
##  4 economics BOST…      0.49      2.66         36.9          34.2             5.5 
##  5 economics BRAN…      0.3       3.03         36.8          48.7             5.29
##  6 economics BROW…      0.84      2.31         27.1          54.6             6   
##  7 economics CALI…      0.99      2.31         56.4          83.3             4   
##  8 economics CARN…      0.43      1.67         35.2          45.6             5.05
##  9 economics CITY…      0.35      1.06         38.1          27.9             5.2 
## 10 economics CLAR…      0.47      0.7          24.7          37.7             5.17
## # … with 402 more rows, and 9 more variables: PctMinorityFac <dbl>,
## #   PctFemaleFac <dbl>, PctFemaleStud <dbl>, PctIntlStud <dbl>,
## #   AvNumPhDs <dbl>, AvGREs <dbl>, TotFac <dbl>, PctAsstProf <dbl>,
## #   NumStud <dbl>
```

---
# Terminology of data: Observation
<br><br>
.content-box[
- A set of measurements made under similar conditions
- Contains several values, each associated with a different variable.
- For the grad programs, this is institution, and program, .green[uniquley define the observation].
]

```
## # A tibble: 412 × 16
##    subject   Inst  AvNumPubs AvNumCits PctFacGrants PctCompletion MedianTimetoDeg…
##    <chr>     <chr>     <dbl>     <dbl>        <dbl>         <dbl>            <dbl>
##  1 economics ARIZ…      0.9       1.57         31.3          31.7             5.6 
##  2 economics AUBU…      0.79      0.64         77.6          44.4             3.84
##  3 economics BOST…      0.51      1.03         43.5          46.8             5   
##  4 economics BOST…      0.49      2.66         36.9          34.2             5.5 
##  5 economics BRAN…      0.3       3.03         36.8          48.7             5.29
##  6 economics BROW…      0.84      2.31         27.1          54.6             6   
##  7 economics CALI…      0.99      2.31         56.4          83.3             4   
##  8 economics CARN…      0.43      1.67         35.2          45.6             5.05
##  9 economics CITY…      0.35      1.06         38.1          27.9             5.2 
## 10 economics CLAR…      0.47      0.7          24.7          37.7             5.17
## # … with 402 more rows, and 9 more variables: PctMinorityFac <dbl>,
## #   PctFemaleFac <dbl>, PctFemaleStud <dbl>, PctIntlStud <dbl>,
## #   AvNumPhDs <dbl>, AvGREs <dbl>, TotFac <dbl>, PctAsstProf <dbl>,
## #   NumStud <dbl>
```

---
# Terminology of data: Value
<br><br>

.content-box[
- Is the state of a variable when you measure it. 
- The value of a variable typically changes from observation to observation.
- For the grad programs, this is the value in .green[each cell.]
]

```
## # A tibble: 412 × 16
##    subject   Inst  AvNumPubs AvNumCits PctFacGrants PctCompletion MedianTimetoDeg…
##    <chr>     <chr>     <dbl>     <dbl>        <dbl>         <dbl>            <dbl>
##  1 economics ARIZ…      0.9       1.57         31.3          31.7             5.6 
##  2 economics AUBU…      0.79      0.64         77.6          44.4             3.84
##  3 economics BOST…      0.51      1.03         43.5          46.8             5   
##  4 economics BOST…      0.49      2.66         36.9          34.2             5.5 
##  5 economics BRAN…      0.3       3.03         36.8          48.7             5.29
##  6 economics BROW…      0.84      2.31         27.1          54.6             6   
##  7 economics CALI…      0.99      2.31         56.4          83.3             4   
##  8 economics CARN…      0.43      1.67         35.2          45.6             5.05
##  9 economics CITY…      0.35      1.06         38.1          27.9             5.2 
## 10 economics CLAR…      0.47      0.7          24.7          37.7             5.17
## # … with 402 more rows, and 9 more variables: PctMinorityFac <dbl>,
## #   PctFemaleFac <dbl>, PctFemaleStud <dbl>, PctIntlStud <dbl>,
## #   AvNumPhDs <dbl>, AvGREs <dbl>, TotFac <dbl>, PctAsstProf <dbl>,
## #   NumStud <dbl>
```
…
---
background-image: url(https://imgs.njtierney.com/tidy-data.png)
background-size: contain
background-position: 50% 50%
class: center, bottom, black

---

# The grad program

It is in .green[**tidy**] tabular form. 

```
## # A tibble: 412 × 16
##    subject   Inst  AvNumPubs AvNumCits PctFacGrants PctCompletion MedianTimetoDeg…
##    <chr>     <chr>     <dbl>     <dbl>        <dbl>         <dbl>            <dbl>
##  1 economics ARIZ…      0.9       1.57         31.3          31.7             5.6 
##  2 economics AUBU…      0.79      0.64         77.6          44.4             3.84
##  3 economics BOST…      0.51      1.03         43.5          46.8             5   
##  4 economics BOST…      0.49      2.66         36.9          34.2             5.5 
##  5 economics BRAN…      0.3       3.03         36.8          48.7             5.29
##  6 economics BROW…      0.84      2.31         27.1          54.6             6   
##  7 economics CALI…      0.99      2.31         56.4          83.3             4   
##  8 economics CARN…      0.43      1.67         35.2          45.6             5.05
##  9 economics CITY…      0.35      1.06         38.1          27.9             5.2 
## 10 economics CLAR…      0.47      0.7          24.7          37.7             5.17
## # … with 402 more rows, and 9 more variables: PctMinorityFac <dbl>,
## #   PctFemaleFac <dbl>, PctFemaleStud <dbl>, PctIntlStud <dbl>,
## #   AvNumPhDs <dbl>, AvGREs <dbl>, TotFac <dbl>, PctAsstProf <dbl>,
## #   NumStud <dbl>
```
…
---
# Melbourne weather 😨

<br><br>

```
## # A tibble: 1,593 × 12
##    X1             X2 X3    X4       X5    X9   X13   X17   X21   X25   X29   X33
##    <chr>       <dbl> <chr> <chr> <dbl> <dbl> <dbl> <dbl> <dbl> <dbl> <dbl> <dbl>
##  1 ASN00086282  1970 07    TMAX    141   124   113   123   148   149   139   153
##  2 ASN00086282  1970 07    TMIN     80    63    36    57    69    47    84    78
##  3 ASN00086282  1970 07    PRCP      3    30     0     0    36     3     0     0
##  4 ASN00086282  1970 08    TMAX    145   128   150   122   109   112   116   142
##  5 ASN00086282  1970 08    TMIN     50    61    75    67    41    51    48    -7
##  6 ASN00086282  1970 08    PRCP      0    66     0    53    13     3     8     0
##  7 ASN00086282  1970 09    TMAX    168   168   162   162   162   150   184   179
##  8 ASN00086282  1970 09    TMIN     19    29    62    81    81    55    73    97
##  9 ASN00086282  1970 09    PRCP      0     0     0     0     3     5     0    38
## 10 ASN00086282  1970 10    TMAX    189   194   204   267   256   228   237   144
## # … with 1,583 more rows
```
…
.pull-right[

<img src="images/french_fries.png" width="100%" style="display: block; margin: auto;" />

]

---
# French fries: Variables? Observations?
<br><br>

```r
french_fries <- read_csv(here::here("slides/data/french_fries.csv"))
french_fries
## # A tibble: 696 × 9
##     time treatment subject   rep potato buttery grassy rancid painty
##    <dbl>     <dbl>   <dbl> <dbl>  <dbl>   <dbl>  <dbl>  <dbl>  <dbl>
##  1     1         1       3     1    2.9     0      0      0      5.5
##  2     1         1       3     2   14       0      0      1.1    0  
##  3     1         1      10     1   11       6.4    0      0      0  
##  4     1         1      10     2    9.9     5.9    2.9    2.2    0  
##  5     1         1      15     1    1.2     0.1    0      1.1    5.1
##  6     1         1      15     2    8.8     3      3.6    1.5    2.3
##  7     1         1      16     1    9       2.6    0.4    0.1    0.2
##  8     1         1      16     2    8.2     4.4    0.3    1.4    4  
##  9     1         1      19     1    7       3.2    0      4.9    3.2
## 10     1         1      19     2   13       0      3.1    4.3   10.3
## # … with 686 more rows
```
…
.pull-right[

```r
genes_long <- genes %>% 
  pivot_longer(cols = -id,
               names_to = "variable",
               values_to = "expr")

genes_long
## # A tibble: 33 × 3
##    id     variable  expr
##    <chr>  <chr>    <dbl>
##  1 Gene 1 WI-6.R1   2.18
##  2 Gene 1 WI-6.R2   2.20
##  3 Gene 1 WI-6.R4   4.20
##  4 Gene 1 WM-6.R1   2.63
##  5 Gene 1 WM-6.R2   5.06
##  6 Gene 1 WI-12.R1  4.54
##  7 Gene 1 WI-12.R2  5.53
##  8 Gene 1 WI-12.R4  4.41
##  9 Gene 1 WM-12.R1  3.85
## 10 Gene 1 WM-12.R2  4.18
## # … with 23 more rows
```
]
---
# Separate columns

.pull-left[

```
## # A tibble: 33 × 3
##    id     variable  expr
##    <chr>  <chr>    <dbl>
##  1 Gene 1 WI-6.R1   2.18
##  2 Gene 1 WI-6.R2   2.20
##  3 Gene 1 WI-6.R4   4.20
##  4 Gene 1 WM-6.R1   2.63
##  5 Gene 1 WM-6.R2   5.06
##  6 Gene 1 WI-12.R1  4.54
##  7 Gene 1 WI-12.R2  5.53
##  8 Gene 1 WI-12.R4  4.41
##  9 Gene 1 WM-12.R1  3.85
## 10 Gene 1 WM-12.R2  4.18
## # … with 23 more rows
```
]

.pull-right[

```r
genes_long %>%
  separate(col = variable, 
           into = c("trt",
                    "leftover"),
           "-")
## # A tibble: 33 × 4
##    id     trt   leftover  expr
##    <chr>  <chr> <chr>    <dbl>
##  1 Gene 1 WI    6.R1      2.18
##  2 Gene 1 WI    6.R2      2.20
##  3 Gene 1 WI    6.R4      4.20
##  4 Gene 1 WM    6.R1      2.63
##  5 Gene 1 WM    6.R2      5.06
##  6 Gene 1 WI    12.R1     4.54
##  7 Gene 1 WI    12.R2     5.53
##  8 Gene 1 WI    12.R4     4.41
##  9 Gene 1 WM    12.R1     3.85
## 10 Gene 1 WM    12.R2     4.18
## # … with 23 more rows
```
]

---
# Separate columns

```r
genes_long_tidy <- genes_long %>%
  separate(variable, c("trt", "leftover"), "-") %>%
  separate(leftover, c("time", "rep"), "\\.") 

genes_long_tidy
## # A tibble: 33 × 5
##    id     trt   time  rep    expr
##    <chr>  <chr> <chr> <chr> <dbl>
##  1 Gene 1 WI    6     R1     2.18
##  2 Gene 1 WI    6     R2     2.20
##  3 Gene 1 WI    6     R4     4.20
##  4 Gene 1 WM    6     R1     2.63
##  5 Gene 1 WM    6     R2     5.06
##  6 Gene 1 WI    12    R1     4.54
##  7 Gene 1 WI    12    R2     5.53
##  8 Gene 1 WI    12    R4     4.41
##  9 Gene 1 WM    12    R1     3.85
## 10 Gene 1 WM    12    R2     4.18
## # … with 23 more rows
```
…
Choose observations (certain rows) from your data

---
# `filter()`: example
.code[

```r
fries_long %>%
  filter(subject == 10)
## # A tibble: 300 × 6
##     time treatment subject   rep type    rating
##    <dbl>     <dbl>   <dbl> <dbl> <fct>    <dbl>
##  1     1         1      10     1 potato    11  
##  2     1         1      10     1 buttery    6.4
##  3     1         1      10     1 grassy     0  
##  4     1         1      10     1 rancid     0  
##  5     1         1      10     1 painty     0  
##  6     1         1      10     2 potato     9.9
##  7     1         1      10     2 buttery    5.9
##  8     1         1      10     2 grassy     2.9
##  9     1         1      10     2 rancid     2.2
## 10     1         1      10     2 painty     0  
## # … with 290 more rows
```
…
---
# `select()` 

<br><br>

We need to provide a comma separated list of variables, by .green[name].

```r
french_fries %>% 
  select(time, 
         treatment, 
         subject)
## # A tibble: 696 × 3
##     time treatment subject
##    <dbl>     <dbl>   <dbl>
##  1     1         1       3
##  2     1         1       3
##  3     1         1      10
##  4     1         1      10
##  5     1         1      15
##  6     1         1      15
##  7     1         1      16
##  8     1         1      16
##  9     1         1      19
## 10     1         1      19
## # … with 686 more rows
```

---
# `select()`: **drop** selected variables by prefixing with `-`
<br><br>

```r
french_fries %>% 
  select(-time, 
         -treatment, 
         -subject)
## # A tibble: 696 × 6
##      rep potato buttery grassy rancid painty
##    <dbl>  <dbl>   <dbl>  <dbl>  <dbl>  <dbl>
##  1     1    2.9     0      0      0      5.5
##  2     2   14       0      0      1.1    0  
##  3     1   11       6.4    0      0      0  
##  4     2    9.9     5.9    2.9    2.2    0  
##  5     1    1.2     0.1    0      1.1    5.1
##  6     2    8.8     3      3.6    1.5    2.3
##  7     1    9       2.6    0.4    0.1    0.2
##  8     2    8.2     4.4    0.3    1.4    4  
##  9     1    7       3.2    0      4.9    3.2
## 10     2   13       0      3.1    4.3   10.3
## # … with 686 more rows
```
…
- `starts_with()`, 
- `ends_with()`,
- `contains()`, 
- `matches()`, or 
- `everything()`
]

.right-plot[

```r
french_fries %>% 
  select(contains("e"))
## # A tibble: 696 × 5
##     time treatment subject   rep buttery
##    <dbl>     <dbl>   <dbl> <dbl>   <dbl>
##  1     1         1       3     1     0  
##  2     1         1       3     2     0  
##  3     1         1      10     1     6.4
##  4     1         1      10     2     5.9
##  5     1         1      15     1     0.1
##  6     1         1      15     2     3  
##  7     1         1      16     1     2.6
##  8     1         1      16     2     4.4
##  9     1         1      19     1     3.2
## 10     1         1      19     2     0  
## # … with 686 more rows
```
]

---
# `select()`: Using it

.left-code[
You can use the colon, `:`, to choose variables in order of the columns
]

.right-plot[

```r
french_fries %>% 
  select(time:subject)
## # A tibble: 696 × 3
##     time treatment subject
##    <dbl>     <dbl>   <dbl>
##  1     1         1       3
##  2     1         1       3
##  3     1         1      10
##  4     1         1      10
##  5     1         1      15
##  6     1         1      15
##  7     1         1      16
##  8     1         1      16
##  9     1         1      19
## 10     1         1      19
## # … with 686 more rows
```
…
.purple.large.right[
Artwork by @allison_horst
]

---
# `mutate()`: create a new variable; keep existing ones

<br><br>

```r
french_fries 
## # A tibble: 696 × 9
##     time treatment subject   rep potato buttery grassy rancid painty
##    <dbl>     <dbl>   <dbl> <dbl>  <dbl>   <dbl>  <dbl>  <dbl>  <dbl>
##  1     1         1       3     1    2.9     0      0      0      5.5
##  2     1         1       3     2   14       0      0      1.1    0  
##  3     1         1      10     1   11       6.4    0      0      0  
##  4     1         1      10     2    9.9     5.9    2.9    2.2    0  
##  5     1         1      15     1    1.2     0.1    0      1.1    5.1
##  6     1         1      15     2    8.8     3      3.6    1.5    2.3
##  7     1         1      16     1    9       2.6    0.4    0.1    0.2
##  8     1         1      16     2    8.2     4.4    0.3    1.4    4  
##  9     1         1      19     1    7       3.2    0      4.9    3.2
## 10     1         1      19     2   13       0      3.1    4.3   10.3
## # … with 686 more rows
```

---
# `mutate()`: create a new variable; keep existing ones

<br><br>

```r
french_fries %>% 
* mutate(rainty = rancid + painty)
## # A tibble: 696 × 10
##     time treatment subject   rep potato buttery grassy rancid painty rainty
##    <dbl>     <dbl>   <dbl> <dbl>  <dbl>   <dbl>  <dbl>  <dbl>  <dbl>  <dbl>
##  1     1         1       3     1    2.9     0      0      0      5.5    5.5
##  2     1         1       3     2   14       0      0      1.1    0      1.1
##  3     1         1      10     1   11       6.4    0      0      0      0  
##  4     1         1      10     2    9.9     5.9    2.9    2.2    0      2.2
##  5     1         1      15     1    1.2     0.1    0      1.1    5.1    6.2
##  6     1         1      15     2    8.8     3      3.6    1.5    2.3    3.8
##  7     1         1      16     1    9       2.6    0.4    0.1    0.2    0.3
##  8     1         1      16     2    8.2     4.4    0.3    1.4    4      5.4
##  9     1         1      19     1    7       3.2    0      4.9    3.2    8.1
## 10     1         1      19     2   13       0      3.1    4.3   10.3   14.6
## # … with 686 more rows
```
…
<img src="Workshop1-Week2_files/figure-html/plot-fries-type-rating -1.png" style="display: block; margin: auto;" />
.green[Box plot or boxplot] is a five summary data visualization that provides information about the distribution of the data. .green[25th quantile, Median, 75th quantile]

---
# French Fries: Are reps like each other?
<br><br>

```r
fries_spread <- fries_long %>% 
  pivot_wider(names_from = rep, 
              values_from = rating)
  
fries_spread
## # A tibble: 1,740 × 6
##     time treatment subject type      `1`   `2`
##    <dbl>     <dbl>   <dbl> <fct>   <dbl> <dbl>
##  1     1         1       3 potato    2.9  14  
##  2     1         1       3 buttery   0     0  
##  3     1         1       3 grassy    0     0  
##  4     1         1       3 rancid    0     1.1
##  5     1         1       3 painty    5.5   0  
##  6     1         1      10 potato   11     9.9
##  7     1         1      10 buttery   6.4   5.9
##  8     1         1      10 grassy    0     2.9
##  9     1         1      10 rancid    0     2.2
## 10     1         1      10 painty    0     0  
## # … with 1,730 more rows
```
…
