ETC5510: Introduction to Data Analysis
…
```r
 excel_sheets("data/NewSouthWales.xlsx")
## [1] "Summary of offences" "Premises Type"       "Victims"            
## [4] "Offenders"           "Indigenous status "  "Alcohol Related"    
## [7] "Month"               "Time"
```

---
# Read different excel sheets

<br><br>

```r
read_excel("data/NewSouthWales.xlsx", sheet = 1)
## # A tibble: 84 x 15
##    `NSW Recorded C… ...2  `2019` `Definitions an… ...5  ...6  ...7  ...8  ...9 
##    <chr>            <chr> <chr>  <chr>            <chr> <chr> <chr> <chr> <chr>
##  1 <NA>             <NA>  <NA>   <NA>             <NA>  <NA>  <NA>  <NA>  <NA> 
##  2 Number of recor… <NA>  <NA>   <NA>             <NA>  <NA>  <NA>  <NA>  <NA> 
##  3 <NA>             <NA>  <NA>   <NA>             <NA>  <NA>  <NA>  <NA>  <NA> 
##  4 New South Wales  <NA>  <NA>   <NA>             <NA>  <NA>  <NA>  <NA>  <NA> 
##  5 <NA>             <NA>  Jan-D… <NA>             Jan-… <NA>  Jan-… <NA>  Jan-…
##  6 Offence group    Offe… Numbe… Rate per 100,00… Numb… Rate… Numb… Rate… Numb…
##  7 17 major offenc… Murd… 74     0.9716000000000… 70    0.90… 53    0.67… 72   
##  8 <NA>             Dome… 29113  382.25259999999… 29148 376.… 28470 361.… 29710
##  9 <NA>             Non-… 30858  405.1644         31772 410.… 32227 409.… 31911
## 10 <NA>             Sexu… 4982   65.413499999999… 5249  67.8… 5994  76.1… 5846 
## # … with 74 more rows, and 6 more variables: ...10 <chr>, ...11 <chr>,
## #   ...12 <chr>, ...13 <chr>, ...14 <chr>, ...15 <chr>
```
…
---
# Read specific cells from an excel file 

<br><br>

```r
read_excel("data/NewSouthWales.xlsx", sheet = 1, 
range = cell_limits(c(1,1), c(NA, NA) ))
## # A tibble: 84 x 15
##    `NSW Recorded C… ...2  `2019` `Definitions an… ...5  ...6  ...7  ...8  ...9 
##    <chr>            <chr> <chr>  <chr>            <chr> <chr> <chr> <chr> <chr>
##  1 <NA>             <NA>  <NA>   <NA>             <NA>  <NA>  <NA>  <NA>  <NA> 
##  2 Number of recor… <NA>  <NA>   <NA>             <NA>  <NA>  <NA>  <NA>  <NA> 
##  3 <NA>             <NA>  <NA>   <NA>             <NA>  <NA>  <NA>  <NA>  <NA> 
##  4 New South Wales  <NA>  <NA>   <NA>             <NA>  <NA>  <NA>  <NA>  <NA> 
##  5 <NA>             <NA>  Jan-D… <NA>             Jan-… <NA>  Jan-… <NA>  Jan-…
##  6 Offence group    Offe… Numbe… Rate per 100,00… Numb… Rate… Numb… Rate… Numb…
##  7 17 major offenc… Murd… 74     0.9716000000000… 70    0.90… 53    0.67… 72   
##  8 <NA>             Dome… 29113  382.25259999999… 29148 376.… 28470 361.… 29710
##  9 <NA>             Non-… 30858  405.1644         31772 410.… 32227 409.… 31911
## 10 <NA>             Sexu… 4982   65.413499999999… 5249  67.8… 5994  76.1… 5846 
## # … with 74 more rows, and 6 more variables: ...10 <chr>, ...11 <chr>,
## #   ...12 <chr>, ...13 <chr>, ...14 <chr>, ...15 <chr>
```
When we use NA we assume that the entire rows or columns are being selected.

---
# Read specific cells from an excel file 

```r
read_excel("data/NewSouthWales.xlsx", sheet = 1,  
range = cell_limits(c(1, NA), c(NA, 2) ))
## # A tibble: 84 x 2
##    `NSW Recorded Crime Statistics 2015 - 2019`           ...2                   
##    <chr>                                                 <chr>                  
##  1 <NA>                                                  <NA>                   
##  2 Number of recorded incidents and rate per 100,000 po… <NA>                   
##  3 <NA>                                                  <NA>                   
##  4 New South Wales                                       <NA>                   
##  5 <NA>                                                  <NA>                   
##  6 Offence group                                         Offence type           
##  7 17 major offences                                     Murder^                
##  8 <NA>                                                  Domestic violence rela…
##  9 <NA>                                                  Non-domestic violence …
## 10 <NA>                                                  Sexual assault         
## # … with 74 more rows
```
.green[Starting in the cell located row 1 select all the rows in that column and 
select all the rows in column 2.]

---
# Read specific cells from an excel file 

<br>

.green[Reading column 2] 
<br>

```r
read_excel("data/NewSouthWales.xlsx", sheet = 1, 
range = cell_cols(2))
## # A tibble: 62 x 1
##    `Offence type`                                              
##    <chr>                                                       
##  1 Murder^                                                     
##  2 Domestic violence related assault                           
##  3 Non-domestic violence related assault                       
##  4 Sexual assault                                              
##  5 Indecent assault, act of indecency and other sexual offences
##  6 Robbery without a weapon                                    
##  7 Robbery with a firearm                                      
##  8 Robbery with a weapon not a firearm                         
##  9 Break and enter dwelling                                    
## 10 Break and enter non-dwelling                                
## # … with 52 more rows
```
…
---
# Example: Mad Men. (Nodes = characters from the series)

```r
madmen_nodes
## # A tibble: 45 x 2
##    label          gender
##    <chr>          <chr> 
##  1 Betty Draper   female
##  2 Don Draper     male  
##  3 Harry Crane    male  
##  4 Joan Holloway  female
##  5 Lane Pryce     male  
##  6 Peggy Olson    female
##  7 Pete Campbell  male  
##  8 Roger Sterling male  
##  9 Sal Romano     male  
## 10 Henry Francis  male  
## # … with 35 more rows
```

---
# Example: Mad Men. (Edges = how they are associated)

```r
madmen_edges
## # A tibble: 39 x 2
##    Name1        Name2           
##    <chr>        <chr>           
##  1 Betty Draper Henry Francis   
##  2 Betty Draper Random guy      
##  3 Don Draper   Allison         
##  4 Don Draper   Bethany Van Nuys
##  5 Don Draper   Betty Draper    
##  6 Don Draper   Bobbie Barrett  
##  7 Don Draper   Candace         
##  8 Don Draper   Doris           
##  9 Don Draper   Faye Miller     
## 10 Don Draper   Joy             
## # … with 29 more rows
```

---
# Let's get the madmen data into the right shape
<br><br>

```r
madmen_edges %>%
  rename(from_id = Name1, to_id = Name2) 
## # A tibble: 39 x 2
##    from_id      to_id           
##    <chr>        <chr>           
##  1 Betty Draper Henry Francis   
##  2 Betty Draper Random guy      
##  3 Don Draper   Allison         
##  4 Don Draper   Bethany Van Nuys
##  5 Don Draper   Betty Draper    
##  6 Don Draper   Bobbie Barrett  
##  7 Don Draper   Candace         
##  8 Don Draper   Doris           
##  9 Don Draper   Faye Miller     
## 10 Don Draper   Joy             
## # … with 29 more rows
```
<br>
Is this data represented a directed or an undirected graph?

---
# Let's get the madmen data into the right shape

```r
madmen_net <- madmen_edges %>%
  rename(from_id = Name1, to_id = Name2) %>%
* full_join(madmen_nodes,
*           by = c("from_id" = "label"))

madmen_net
## # A tibble: 75 x 3
##    from_id      to_id            gender
##    <chr>        <chr>            <chr> 
##  1 Betty Draper Henry Francis    female
##  2 Betty Draper Random guy       female
##  3 Don Draper   Allison          male  
##  4 Don Draper   Bethany Van Nuys male  
##  5 Don Draper   Betty Draper     male  
##  6 Don Draper   Bobbie Barrett   male  
##  7 Don Draper   Candace          male  
##  8 Don Draper   Doris            male  
##  9 Don Draper   Faye Miller      male  
## 10 Don Draper   Joy              male  
## # … with 65 more rows
```
…
