ETC10 - 5510: Introduction to Data Analysis
…
```r
text_df %>%
  unnest_tokens(
    output = word,
    input = text,
    token = "ngrams",
    n = 3
  )
## # A tibble: 50 × 2
##     line word              
##    <int> <chr>             
##  1     1 what is it        
##  2     1 is it that        
##  3     1 it that you       
##  4     1 that you want     
##  5     1 you want exactly  
##  6     2 <NA>              
##  7     3 a land where      
##  8     3 land where the    
##  9     3 where the powerful
## 10     3 the powerful do   
## # … with 40 more rows
```
…
---
# Tidy up the reviews!

```r
user_reviews_words <- acnh_user_reviews_parsed %>%
  unnest_tokens(output = word, input = text)

user_reviews_words
## # A tibble: 362,729 × 4
##    grade user_name date       word   
##    <dbl> <chr>     <date>     <chr>  
##  1     4 mds27272  2020-03-20 my     
##  2     4 mds27272  2020-03-20 gf     
##  3     4 mds27272  2020-03-20 started
##  4     4 mds27272  2020-03-20 playing
##  5     4 mds27272  2020-03-20 before 
##  6     4 mds27272  2020-03-20 me     
##  7     4 mds27272  2020-03-20 no     
##  8     4 mds27272  2020-03-20 option 
##  9     4 mds27272  2020-03-20 to     
## 10     4 mds27272  2020-03-20 create 
## # … with 362,719 more rows
```
…
<img src="Workshop1-Week8_files/figure-html/word-histogram-1.png" width="90%" style="display: block; margin: auto;" />

---
# What are the most common words?
<br>

```r
user_reviews_words %>%
  count(word, sort = TRUE)
## # A tibble: 13,454 × 2
##    word      n
##    <chr> <int>
##  1 the   17739
##  2 to    11857
##  3 game   8769
##  4 and    8740
##  5 a      8330
##  6 i      7211
##  7 is     6858
##  8 this   5777
##  9 of     5383
## 10 it     4711
## # … with 13,444 more rows
```

---
# Stop words
<br><br>
.content-box-neutral[
- In computing, .green[stop words] are words which are filtered out before or after processing of natural language data (text).
- They usually refer to the .green[most common words in a language], but there is not a single list of stop words used by all natural language processing tools.
]
---
# English stop words
<br>

```r
get_stopwords()
## # A tibble: 175 × 2
##    word      lexicon 
##    <chr>     <chr>   
##  1 i         snowball
##  2 me        snowball
##  3 my        snowball
##  4 myself    snowball
##  5 we        snowball
##  6 our       snowball
##  7 ours      snowball
##  8 ourselves snowball
##  9 you       snowball
## 10 your      snowball
## # … with 165 more rows
```

---
# Spanish stop words
<br>

```r
get_stopwords(language = "es")
## # A tibble: 308 × 2
##    word  lexicon 
##    <chr> <chr>   
##  1 de    snowball
##  2 la    snowball
##  3 que   snowball
##  4 el    snowball
##  5 en    snowball
##  6 y     snowball
##  7 a     snowball
##  8 los   snowball
##  9 del   snowball
## 10 se    snowball
## # … with 298 more rows
```

---
# Various lexicons

See `?get_stopwords` for more info.

```r
get_stopwords(source = "smart")
## # A tibble: 571 × 2
##    word        lexicon
##    <chr>       <chr>  
##  1 a           smart  
##  2 a's         smart  
##  3 able        smart  
##  4 about       smart  
##  5 above       smart  
##  6 according   smart  
##  7 accordingly smart  
##  8 across      smart  
##  9 actually    smart  
## 10 after       smart  
## # … with 561 more rows
```

---
# What are the most common words?

```r
user_reviews_words %>%
  count(word, sort = TRUE)
## # A tibble: 13,454 × 2
##    word      n
##    <chr> <int>
##  1 the   17739
##  2 to    11857
##  3 game   8769
##  4 and    8740
##  5 a      8330
##  6 i      7211
##  7 is     6858
##  8 this   5777
##  9 of     5383
## 10 it     4711
## # … with 13,444 more rows
```

---
# What are the most common words?

```r
stopwords_smart <- get_stopwords(source = "smart")

user_reviews_words %>%
  anti_join(stopwords_smart) 
## # A tibble: 145,444 × 4
##    grade user_name date       word   
##    <dbl> <chr>     <date>     <chr>  
##  1     4 mds27272  2020-03-20 gf     
##  2     4 mds27272  2020-03-20 started
##  3     4 mds27272  2020-03-20 playing
##  4     4 mds27272  2020-03-20 option 
##  5     4 mds27272  2020-03-20 create 
##  6     4 mds27272  2020-03-20 island 
##  7     4 mds27272  2020-03-20 guys   
##  8     4 mds27272  2020-03-20 2nd    
##  9     4 mds27272  2020-03-20 player 
## 10     4 mds27272  2020-03-20 start  
## # … with 145,434 more rows
```
…
---
# As a picture

<img src="gifs/anti-join.gif" width="50%" style="display: block; margin: auto;" />

---
# What are the most common words?
<br>

```r
user_reviews_words %>%
  anti_join(stopwords_smart) %>%
  count(word, sort = TRUE) 
## # A tibble: 12,938 × 2
##    word         n
##    <chr>    <int>
##  1 game      8769
##  2 island    3974
##  3 switch    2214
##  4 play      2176
##  5 player    1844
##  6 nintendo  1694
##  7 console   1489
##  8 crossing  1371
##  9 animal    1369
## 10 people    1045
## # … with 12,928 more rows
```
…
- and the .bold[sentiment content of the whole text as the sum of the sentiment content of the individual words]
]

---
# Sentiment lexicons
<br>
.pull-left[

```r
get_sentiments("afinn")
## # A tibble: 2,477 × 2
##    word       value
##    <chr>      <dbl>
##  1 abandon       -2
##  2 abandoned     -2
##  3 abandons      -2
##  4 abducted      -2
##  5 abduction     -2
##  6 abductions    -2
##  7 abhor         -3
##  8 abhorred      -3
##  9 abhorrent     -3
## 10 abhors        -3
## # … with 2,467 more rows
```
]

.pull-right[

```r
get_sentiments("bing")
## # A tibble: 6,786 × 2
##    word        sentiment
##    <chr>       <chr>    
##  1 2-faces     negative 
##  2 abnormal    negative 
##  3 abolish     negative 
##  4 abominable  negative 
##  5 abominably  negative 
##  6 abominate   negative 
##  7 abomination negative 
##  8 abort       negative 
##  9 aborted     negative 
## 10 aborts      negative 
## # … with 6,776 more rows
```
]

---
# Sentiment lexicons
<br>
.pull-left[

```r
get_sentiments(lexicon = "bing")
## # A tibble: 6,786 × 2
##    word        sentiment
##    <chr>       <chr>    
##  1 2-faces     negative 
##  2 abnormal    negative 
##  3 abolish     negative 
##  4 abominable  negative 
##  5 abominably  negative 
##  6 abominate   negative 
##  7 abomination negative 
##  8 abort       negative 
##  9 aborted     negative 
## 10 aborts      negative 
## # … with 6,776 more rows
```
]

.pull-right[

```r
get_sentiments(lexicon = "loughran")
## # A tibble: 4,150 × 2
##    word         sentiment
##    <chr>        <chr>    
##  1 abandon      negative 
##  2 abandoned    negative 
##  3 abandoning   negative 
##  4 abandonment  negative 
##  5 abandonments negative 
##  6 abandons     negative 
##  7 abdicated    negative 
##  8 abdicates    negative 
##  9 abdicating   negative 
## 10 abdication   negative 
## # … with 4,140 more rows
```
…
---

# Common words over grades 
<br>

```r
user_reviews_words %>%
  anti_join(stopwords_smart) %>%
  count(grade, word, sort = TRUE) 
## # A tibble: 29,010 × 3
##    grade word         n
##    <dbl> <chr>    <int>
##  1     0 game      2989
##  2     0 island    1783
##  3    10 game      1685
##  4     0 switch    1058
##  5     0 play      1027
##  6     0 player     921
##  7     0 nintendo   902
##  8     1 game       898
##  9     9 game       802
## 10     0 console    738
## # … with 29,000 more rows
```

---
# Common review words by grade - With stop words:
<br>

```r
user_reviews_words %>%
  count(grade, word, sort = TRUE)
## # A tibble: 33,237 × 3
##    grade word      n
##    <dbl> <chr> <int>
##  1     0 the    5865
##  2     0 to     4421
##  3     0 game   2989
##  4    10 the    2896
##  5     0 and    2767
##  6     0 a      2663
##  7     0 i      2656
##  8     0 is     2304
##  9     0 this   2171
## 10     9 the    1913
## # … with 33,227 more rows
```
…
# Inverse document frequency

For the reviews data set, our collection is all the reviews. You could
compute this in a somewhat roundabout as follows:

```r
tbl_idf <- user_reviews_words %>% 
    anti_join(stopwords_smart) %>%
    mutate(collection_size = n_distinct(user_name)) %>% 
    group_by(collection_size, word) %>% 
    summarise(times_word_used = n_distinct(user_name)) %>% 
    mutate(freq = collection_size / times_word_used,
           idf = log(freq)) 
arrange(tbl_idf, idf)
## # A tibble: 12,938 × 5
## # Groups:   collection_size [1]
##    collection_size word     times_word_used  freq   idf
##              <int> <chr>              <int> <dbl> <dbl>
##  1            2999 game                2354  1.27 0.242
##  2            2999 island              1671  1.79 0.585
##  3            2999 switch              1123  2.67 0.982
##  4            2999 play                1049  2.86 1.05 
##  5            2999 nintendo             984  3.05 1.11 
##  6            2999 console              788  3.81 1.34 
##  7            2999 player               745  4.03 1.39 
##  8            2999 animal               734  4.09 1.41 
##  9            2999 crossing             721  4.16 1.43 
## 10            2999 people               576  5.21 1.65 
## # … with 12,928 more rows
```
…
.content-box-neutral[
- The `AFINN` lexicon assigns words with a score that runs between -5 and 5, with negative scores indicating negative sentiment and positive scores indicating positive sentiment.]

---

# Different sources of sentiment
<br><br>

```r
get_sentiments("afinn")
## # A tibble: 2,477 × 2
##    word       value
##    <chr>      <dbl>
##  1 abandon       -2
##  2 abandoned     -2
##  3 abandons      -2
##  4 abducted      -2
##  5 abduction     -2
##  6 abductions    -2
##  7 abhor         -3
##  8 abhorred      -3
##  9 abhorrent     -3
## 10 abhors        -3
## # … with 2,467 more rows
```
…
---

# Exploring sentiment in Jane Austen
<br><br>

```r
tidy_books
## # A tibble: 725,055 × 4
##    book                linenumber chapter word       
##    <fct>                    <int>   <int> <chr>      
##  1 Sense & Sensibility          1       0 sense      
##  2 Sense & Sensibility          1       0 and        
##  3 Sense & Sensibility          1       0 sensibility
##  4 Sense & Sensibility          3       0 by         
##  5 Sense & Sensibility          3       0 jane       
##  6 Sense & Sensibility          3       0 austen     
##  7 Sense & Sensibility          5       0 1811       
##  8 Sense & Sensibility         10       1 chapter    
##  9 Sense & Sensibility         10       1 1          
## 10 Sense & Sensibility         13       1 the        
## # … with 725,045 more rows
```
…
emma_afinn <- tidy_books %>%
  filter(book == "Emma") %>%
  inner_join(get_sentiments("afinn"))
```
]

---
# Comparing lexicons
<br>

```r
emma_nrc
## # A tibble: 13,700 × 5
##    book  linenumber chapter word       sentiment
##    <fct>      <int>   <int> <chr>      <chr>    
##  1 Emma          15       1 clever     positive 
##  2 Emma          16       1 happy      positive 
##  3 Emma          16       1 blessings  positive 
##  4 Emma          17       1 existence  positive 
##  5 Emma          18       1 distress   negative 
##  6 Emma          21       1 marriage   positive 
##  7 Emma          22       1 mistress   negative 
##  8 Emma          22       1 mother     negative 
##  9 Emma          22       1 mother     positive 
## 10 Emma          23       1 indistinct negative 
## # … with 13,690 more rows
```

---
# Comparing lexicons
<br>

```r
emma_afinn
## # A tibble: 10,901 × 5
##    book  linenumber chapter word         value
##    <fct>      <int>   <int> <chr>        <dbl>
##  1 Emma          15       1 clever           2
##  2 Emma          15       1 rich             2
##  3 Emma          15       1 comfortable      2
##  4 Emma          16       1 happy            3
##  5 Emma          16       1 best             3
##  6 Emma          18       1 distress        -2
##  7 Emma          20       1 affectionate     3
##  8 Emma          22       1 died            -3
##  9 Emma          24       1 excellent        3
## 10 Emma          25       1 fallen          -2
## # … with 10,891 more rows
```
…
