ETC1010 - 5510: Introduction to Data Analysis
…
]

.pull-right[

```r
d_edges <- d %>% 
  as_tibble() %>%
  mutate(from = rownames(d)) %>%
  gather(to, count, -from)
d_edges
## # A tibble: 25 × 3
##    from  to    count
##    <chr> <chr> <dbl>
##  1 Meg   Meg       0
##  2 Tay   Meg       5
##  3 Yat   Meg       4
##  4 Zili  Meg       1
##  5 Jess  Meg       1
##  6 Meg   Tay       5
##  7 Tay   Tay       0
##  8 Yat   Tay       4
##  9 Zili  Tay       2
## 10 Jess  Tay       1
## # … with 15 more rows
```
…
